{
	"info": {
		"_postman_id": "99f58ba5-2764-4945-a9df-9a4c59afc129",
		"name": "iTunes Clone",
		"schema": "https://schema.getpostman.com/json/collection/v2.1.0/collection.json"
	},
	"item": [
		{
			"name": "https://experis-itunes-clone.herokuapp.com/api/customers",
			"request": {
				"method": "GET",
				"header": [],
				"url": {
					"raw": "https://experis-itunes-clone.herokuapp.com/api/customers",
					"protocol": "https",
					"host": [
						"experis-itunes-clone",
						"herokuapp",
						"com"
					],
					"path": [
						"api",
						"customers"
					]
				},
				"description": "Task 1"
			},
			"response": []
		},
		{
			"name": "https://experis-itunes-clone.herokuapp.com/api/customers",
			"request": {
				"method": "POST",
				"header": [],
				"body": {
					"mode": "raw",
					"raw": "{ \r\n    \"firstName\": \"Charlotte\",\r\n    \"lastName\": \"Oedegaarden\",\r\n    \"email\": \"charlotte.oedegaarden@someemail.com\",\r\n    \"country\": \"Norway\",\r\n    \"postalCode\": \"0553\",\r\n    \"phoneNumber\": \"some number\"\r\n}",
					"options": {
						"raw": {
							"language": "json"
						}
					}
				},
				"url": {
					"raw": "https://experis-itunes-clone.herokuapp.com/api/customers",
					"protocol": "https",
					"host": [
						"experis-itunes-clone",
						"herokuapp",
						"com"
					],
					"path": [
						"api",
						"customers"
					]
				},
				"description": "Task 2"
			},
			"response": []
		},
		{
			"name": "https://experis-itunes-clone.herokuapp.com/api/customers/44",
			"request": {
				"method": "PUT",
				"header": [],
				"body": {
					"mode": "raw",
					"raw": "{ \r\n    \"firstName\": \"Charlotte\",\r\n    \"lastName\": \"Oedegaarden\",\r\n    \"email\": \"someemail@email.com\",\r\n    \"country\": \"Norway\",\r\n    \"postalCode\": \"0553\",\r\n    \"phoneNumber\": \"some number\"\r\n}",
					"options": {
						"raw": {
							"language": "json"
						}
					}
				},
				"url": {
					"raw": "https://experis-itunes-clone.herokuapp.com/api/customers/44",
					"protocol": "https",
					"host": [
						"experis-itunes-clone",
						"herokuapp",
						"com"
					],
					"path": [
						"api",
						"customers",
						"44"
					]
				},
				"description": "Task 3"
			},
			"response": []
		},
		{
			"name": "https://experis-itunes-clone.herokuapp.com/api/customers/countries/descending",
			"request": {
				"method": "GET",
				"header": [],
				"url": {
					"raw": "https://experis-itunes-clone.herokuapp.com/api/customers/countries/descending",
					"protocol": "https",
					"host": [
						"experis-itunes-clone",
						"herokuapp",
						"com"
					],
					"path": [
						"api",
						"customers",
						"countries",
						"descending"
					]
				},
				"description": "Task 4"
			},
			"response": []
		},
		{
			"name": "https://experis-itunes-clone.herokuapp.com/api/customers/profit/descending",
			"request": {
				"method": "GET",
				"header": [],
				"url": {
					"raw": "https://experis-itunes-clone.herokuapp.com/api/customers/profit/descending",
					"protocol": "https",
					"host": [
						"experis-itunes-clone",
						"herokuapp",
						"com"
					],
					"path": [
						"api",
						"customers",
						"profit",
						"descending"
					]
				},
				"description": "Task 5"
			},
			"response": []
		},
		{
			"name": "https://experis-itunes-clone.herokuapp.com/api/customers/12/genre",
			"request": {
				"method": "GET",
				"header": [],
				"url": {
					"raw": "https://experis-itunes-clone.herokuapp.com/api/customers/12/genre",
					"protocol": "https",
					"host": [
						"experis-itunes-clone",
						"herokuapp",
						"com"
					],
					"path": [
						"api",
						"customers",
						"12",
						"genre"
					]
				},
				"description": "Task 6"
			},
			"response": []
		}
	],
	"protocolProfileBehavior": {}
}